…
Let’s also look to see what the most common pet names are for various
species. For this we need to first `group_by()` the `species`, and then
do the same counting we did before.

``` marginfigure
Looks like many of those NAs were cats. Poor unnamed kitties…
```

``` r
seattlepets %>% 
  group_by(species) %>%
  count(animal_name, sort = TRUE)
```

    # A tibble: 16,823 × 3
    # Groups:   species [4]
       species animal_name     n
       <chr>   <chr>       <int>
     1 Cat     <NA>          406
     2 Dog     Lucy          337
     3 Dog     Charlie       306
     4 Dog     Bella         249
     5 Dog     Luna          244
     6 Dog     Daisy         221
     7 Dog     Cooper        189
     8 Dog     Lola          187
     9 Dog     Max           186
    10 Dog     Molly         186
    # … with 16,813 more rows
…
Let’s search for the top 5 cat and dog names. To do this, we can use the
`slice_max()` function. The first argument in the function is the
variable we want to select the highest values of, which is `n`. The
second argument is the number of rows to select, which is `n = 5` for
the top 5. It may be a bit confusing that both of these are `n`, but
this is because we already have a variable called `n` in the data frame.

``` r
seattlepets %>% 
  group_by(species) %>%
  count(animal_name, sort = TRUE) %>% 
  slice_max(n, n = 5)
```

    # A tibble: 53 × 3
    # Groups:   species [4]
       species animal_name     n
       <chr>   <chr>       <int>
     1 Cat     <NA>          406
     2 Cat     Luna          111
     3 Cat     Lucy          102
     4 Cat     Lily           86
     5 Cat     Max            83
     6 Dog     Lucy          337
     7 Dog     Charlie       306
     8 Dog     Bella         249
     9 Dog     Luna          244
    10 Dog     Daisy         221
    # … with 43 more rows
…
